{
    "name": "becanais",
    "type": "project",
    "description": "The Laravel Framework.",
    "keywords": ["framework", "laravel"],
    "license": "MIT",
    "require": {
        "php": "^7.3|^8.0",
        "barryvdh/laravel-cors": "^0.11.3",
        "barryvdh/laravel-dompdf": "^0.8.4",
        "fruitcake/laravel-cors": "^2.0",
        "guzzlehttp/guzzle": "^7.0.1",
        "laravel/framework": "^8.54",
        "laravel/sanctum": "^2.11",
        "laravel/tinker": "^2.5",
        "tymon/jwt-auth": "^1.0.0-rc.4.1"
    },
    "require-dev": {
        "beyondcode/laravel-dump-server": "^1.0",
        "facade/ignition": "^2.5",
        "fakerphp/faker": "^1.9.1",
        "laravel/sail": "^1.0.1",
        "mockery/mockery": "^1.4.2",
        "nunomaduro/collision": "^5.0",
        "spatie/data-transfer-object": "2.8.3",
        "phpunit/phpunit": "^9.3.3"
    },
    "autoload": {
        "psr-4": {
            "App\\": "app/",
            "Desing\\": "app/App/",
            "Domain\\": "app/Domain/",
            "Support\\": "app/Support/",
            "Database\\Factories\\": "database/factories/",
            "Database\\Seeders\\": "database/seeders/"
        }
    },
    "autoload-dev": {
        "psr-4": {
            "Tests\\": "tests/"
        }
    },
    "scripts": {
        "post-autoload-dump": [
            "Illuminate\\Foundation\\ComposerScripts::postAutoloadDump",
            "@php artisan package:discover --ansi"
        ],
        "post-update-cmd": [
            "@php artisan vendor:publish --tag=laravel-assets --ansi"
        ],
        "post-root-package-install": [
            "@php -r \"file_exists('.env') || copy('.env.example', '.env');\""
        ],
        "post-create-project-cmd": [
            "@php artisan key:generate --ansi"
        ]
    },
    "extra": {
        "laravel": {
            "dont-discover": []
        }
    },
    "config": {
        "optimize-autoloader": true,
        "preferred-install": "dist",
        "sort-packages": true
    },
    "minimum-stability": "dev",
    "prefer-stable": true
}
